%YAML 1.1
%TAG !u! tag:unity3d.com,2011:
--- !u!78 &1
TagManager:
  serializedVersion: 2
  tags:
  - Core
  - Ground
  - Bots
  - BuildPlace
  - Projectile
  layers:
  - Default
  - TransparentFX
  - Ignore Raycast
  - Ground
  - Water
  - UI
  - Enemy
  - Core
  - Post Processing
  - 
  - 
  - 
  - 
  - 
  - 
  - 
  - 
  - 
  - 
  - 
  - 
  - 
  - 
  - 
  - 
  - 
  - 
  - 
  - 
  - 
  - 
  - 
  m_SortingLayers:
  - name: Default
    uniqueID: 0
    locked: 0
